{
  "ShadowOfDeath": {
    "Version": "ShadowOfDeath",
    "Map": [
      "000::S:1",
      "001::S:1",
      "002::S:1",
      "003::S:1",
      "004::S:1",
      "005::S:1",
      "006::S:1",
      "007::S:1",
      "008::S:1",
      "009::S:1",
      "010::S:1",
      "011::S:1",
      "012::S:1",
      "013::S:1",
      "014::S:1",
      "015::S:1",
      "016::S:1",
      "017::S:1",
      "018::S:1",
      "019::S:1",
      "020::S:1",
      "021::S:1",
      "022::S:1",
      "023::S:1",
      "024::S:1",
      "025::S:1",
      "026::S:1",
      "027::S:1",
      "028::S:1",
      "029::S:1",
      "030::S:1",
      "031::S:1",
      "032::S:1",
      "033::S:1",
      "034::S:1",
      "035::S:1",
      "036::S:1",
      "037::S:1",
      "038::S:1",
      "039::S:1",
      "040::S:1",
      "041::S:1",
      "042::S:1",
      "043::S:1",
      "044::S:1",
      "045::S:1",
      "046::S:1",
      "047::S:1",
      "048::S:1",
      "049::S:1",
      "050::S:1",
      "051::S:1",
      "052::S:1",
      "053::S:1",
      "054::S:1",
      "055::S:1",
      "056::S:1",
      "057::S:1",
      "058::S:1",
      "059::S:1",
      "060::S:1",
      "061::S:1",
      "062::S:1",
      "063::S:1",
      "064::S:1",
      "065::S:1",
      "066::S:1",
      "067::S:1",
      "068::S:1",
      "069::S:1",
      "070::S:1",
      "071::S:1",
      "072::S:1",
      "073::S:1",
      "074::S:1",
      "075::S:1",
      "076::S:1",
      "077::S:1",
      "078::S:1",
      "079::S:1",
      "080::S:1",
      "081::S:1",
      "082::S:1",
      "083::S:1",
      "084::S:1",
      "085::S:1",
      "086::S:1",
      "087::S:1",
      "088::S:1",
      "089::S:1",
      "090::S:1",
      "091::S:1",
      "092::S:1",
      "093::S:1",
      "094::S:1",
      "095::S:1",
      "096::S:1",
      "097::S:1",
      "098::S:1",
      "099::S:1",
      "100::S:1",
      "101::S:1",
      "102::S:1",
      "103::S:1",
      "104::S:1",
      "105::S:1",
      "106::S:1",
      "107::S:1",
      "108::S:1",
      "109::S:1",
      "110::S:1",
      "111::S:1",
      "112::S:1",
      "113::S:1",
      "114::S:1",
      "115::S:1",
      "116::S:1",
      "117::S:1",
      "118::S:1",
      "119::S:1",
      "120::S:1",
      "121::S:1",
      "122::S:0",
      "123::S:1",
      "124::S:0",
      "125::S:1",
      "126::S:0",
      "127::S:1",
      "128::S:0",
      "129::S:1",
      "130::S:1",
      "131::S:1",
      "132::S:1",
      "133::S:1",
      "134::S:1",
      "135::S:1",
      "136::S:1",
      "137::S:1",
      "138::S:1",
      "139::S:1",
      "140::S:1",
      "141::S:1",
      "142::S:1",
      "143::S:1",
      "144::S:1",
      "145::S:0",
      "146::S:0",
      "147::S:0",
      "148::S:0",
      "149::S:0"
    ]
  },
  "InTheWakeOfGods": {
    "Version": "InTheWakeOfGods",
    "BasedOn": "ShadowOfDeath",
    "Map": [
      "150::W:1",
      "151::W:1",
      "152::W:1",
      "153::W:1",
      "154::W:1",
      "155::W:1",
      "156::W:1",
      "157::W:1",
      "158::W:1",
      "159::W:1",
      "160::W:1",
      "161::W:1",
      "162::W:1",
      "163::W:1",
      "164::W:1",
      "165::W:1",
      "166::W:1",
      "167::W:1",
      "168::W:1",
      "169::W:1",
      "170::W:1",
      "171::W:1",
      "172::W:1",
      "173::W:1",
      "174::W:0",
      "175::W:0",
      "176::W:0",
      "177::W:0",
      "178::W:0",
      "179::W:0",
      "180::W:0",
      "181::W:0",
      "182::W:0",
      "183::W:0",
      "184::W:0",
      "185::W:0",
      "186::W:0",
      "187::W:0",
      "188::W:0",
      "189::W:0",
      "190::W:0",
      "191::W:0",
      "192::W:1",
      "193::W:1",
      "194::W:1",
      "195::W:1",
      "196::W:1"
    ]
  },
  "HornOfTheAbyss": {
    "Version": "HornOfTheAbyss",
    "BasedOn": "ShadowOfDeath",
    "Map": [
      "000::H:1",
      "001::H:1",
      "088::H:1",
      "089::H:1",
      "150::H:1",
      "151::H:1",
      "152:149:S:0",
      "153::H:1",
      "154::H:1",
      "155::H:1",
      "156::H:1",
      "157::H:1",
      "158::H:1",
      "159::H:1",
      "160::H:1",
      "161::H:1",
      "162::H:1",
      "163::H:1",
      "164::H:1",
      "165::H:1",
      "166::H:1",
      "167::H:1",
      "168::H:1",
      "169::H:1",
      "170::H:1"
    ]
  }
}